{
  "tags": [
    {
      "name":"Any Fault",
      "address":"ns=2;s=#ANY_FLT",
      "alarms": [
        {
          "type":"boolean",
          "value":1
        }
      ]
    },
    {
      "name":"Bad Password",
      "address":"ns=2;s=#BAD_PWD",
      "alarms": [
        {
          "type":"boolean",
          "value":1
        }
      ]
    },
    {
      "name":"Low Battery",
      "address":"ns=2;s=#LOW_BAT",
      "alarms": [
        {
          "type":"boolean",
          "value":1
        }
      ]
    },
    {
      "name":"Loss IO Module",
      "address":"ns=2;s=#LOS_IOM",
      "alarms": [
        {
          "type":"boolean",
          "value":1
        }
      ]
    },
    {
      "name":"60s Avg Scan",
      "address":"ns=2;s=MFA_DATA.SCN_60s_AVG",
      "alarms": [
        {
          "type":"gt",
          "value":0.355
        }
      ]
    }
  ]
}
